{
    "name": "Rest",
    "alias": "rest",
    "description": "",
    "keywords": [],
    "active": 1,
    "order": 0,
    "providers": [
        "Modules\\Rest\\Providers\\RestServiceProvider"
    ],
    "aliases": {},
    "files": [],
    "requires": []
}
